Bechdel
…
Labels

label <- read_excel("bechdel.xlsx", sheet = "bechdel", 
     range = "A1:J1", col_names = FALSE)
## to characters
label = as.character(label[1,])

## assign labels
set_variable_labels(bechdel, label)

## # A tibble: 1,500 x 10
##     year imdb  budget domgross intgross code  budget_2013 domgross_2013
##    <int> <chr>  <dbl>    <dbl>    <dbl> <chr>       <dbl>         <dbl>
##  1  1974 tt00~ 1.30e7   5.73e7   5.73e7 1974~    61408439     270669505
##  2  1982 tt00~ 1.07e7   7.47e7   1.22e8 1982~    25821968     180285645
##  3  2008 tt08~ 1.50e7   2.20e6   6.38e6 2008~    16233845       2384904
##  4  2011 tt16~ 1.20e7   1.63e7   2.28e7 2011~    12428289      16893744
##  5  2000 tt01~ 2.60e7   4.55e7   7.58e7 2000~    35175618      61566286
##  6  2009 tt12~ 2.00e7   1.44e7   1.91e7 2009~    21714632      15594794
##  7  2007 tt04~ 3.00e8   3.09e8   9.61e8 2007~   337063045     347647302
##  8  2009 tt08~ 8.00e7   1.97e7   5.35e7 2009~    86858528      21363903
##  9  2005 tt03~ 2.00e6   2.07e6   2.08e6 2005~     2386066       2472734
## 10  2002 tt02~ 1.60e7   1.64e7   2.17e7 2002~    20722867      21186244
## # ... with 1,490 more rows, and 2 more variables: intgross_2013 <dbl>,
## #   binary <chr>
…
